/home/phoebel/sts-workspace/ID4meIdentityAgent/src/main/java/org/id4me/ID4meRelyingPartyFilter.java
/home/phoebel/sts-workspace/ID4meIdentityAgent/src/main/java/org/id4me/utils/ID4meUtils.java
/home/phoebel/sts-workspace/ID4meIdentityAgent/src/main/java/org/id4me/utils/package-info.java
/home/phoebel/sts-workspace/ID4meIdentityAgent/src/main/java/org/id4me/ID4meIdentityAgentApplication.java
/home/phoebel/sts-workspace/ID4meIdentityAgent/src/main/java/org/id4me/utils/ID4meData.java
/home/phoebel/sts-workspace/ID4meIdentityAgent/src/main/java/org/id4me/impl/ID4meDataImpl.java
/home/phoebel/sts-workspace/ID4meIdentityAgent/src/main/java/org/id4me/package-info.java
/home/phoebel/sts-workspace/ID4meIdentityAgent/src/main/java/org/id4me/ID4meAimAuthorizationController.java
/home/phoebel/sts-workspace/ID4meIdentityAgent/src/main/java/org/id4me/ID4meIdentityAgentController.java
/home/phoebel/sts-workspace/ID4meIdentityAgent/src/main/java/org/id4me/ID4meUserinfoController.java
/home/phoebel/sts-workspace/ID4meIdentityAgent/src/main/java/org/id4me/ID4meAimAgentController.java
/home/phoebel/sts-workspace/ID4meIdentityAgent/src/main/java/org/id4me/utils/ID4meTokenHandler.java
